module satit13/go-auth

go 1.17

require (
	github.com/dgrijalva/jwt-go v3.2.0+incompatible
	github.com/gofiber/fiber/v2 v2.18.0
	golang.org/x/crypto v0.0.0-20210915214749-c084706c2272
	gorm.io/driver/mysql v1.1.2
	gorm.io/gorm v1.21.15
)

require (
	github.com/andybalholm/brotli v1.0.2 // indirect
	github.com/go-sql-driver/mysql v1.6.0 // indirect
	github.com/gofiber/fiber v1.14.6 // indirect
	github.com/gofiber/utils v0.0.10 // indirect
	github.com/gorilla/schema v1.1.0 // indirect
	github.com/jinzhu/inflection v1.0.0 // indirect
	github.com/jinzhu/now v1.1.2 // indirect
	github.com/klauspost/compress v1.13.4 // indirect
	github.com/mattn/go-colorable v0.1.7 // indirect
	github.com/mattn/go-isatty v0.0.12 // indirect
	github.com/valyala/bytebufferpool v1.0.0 // indirect
	github.com/valyala/fasthttp v1.29.0 // indirect
	github.com/valyala/tcplisten v1.0.0 // indirect
	golang.org/x/sys v0.0.0-20210615035016-665e8c7367d1 // indirect
)
